<svg width="131" height="21" viewBox="0 0 131 21" fill="none" xmlns="http://www.w3.org/2000/svg">
<g clip-path="url(#clip0)">
<path d="M6.03091 0.512695H0.0473938V4.19486H6.03091V0.512695Z" fill="#E56764"/>
<path d="M9.68915 13.8547C8.22135 13.8418 6.08615 12.9526 6.05255 10.4192L6.02356 6.97687L0 6.92578L0.0202519 10.4197C0.477761 14.9092 4.4278 18.4703 9.21875 18.5122C12.987 18.5453 16.1049 17.3495 18.0504 14.1599L13.838 12.0072C12.4034 13.515 11.5735 13.8713 9.68915 13.8547Z" fill="white"/>
<path d="M9.39598 0.562552C9.34167 0.562091 9.25284 0.564853 9.25284 0.564853V4.37359C9.25284 4.36715 9.42682 4.36392 9.52808 4.36392C11.2472 4.37865 12.4715 5.3489 12.7205 7.13567L9.2533 7.1053V10.3451L18.368 10.4252C18.403 10.2268 18.4062 9.86324 18.4081 9.63218C18.4596 3.68365 14.5529 0.607658 9.39598 0.562552Z" fill="white"/>
<path d="M28.64 4.01878C28.64 4.73067 28.0632 5.30806 27.3513 5.30806C26.6394 5.30806 26.062 4.73067 26.062 4.01878C26.062 3.30484 26.6389 2.72949 27.3513 2.72949C28.0637 2.72949 28.64 3.30637 28.64 4.01878ZM26.2338 12.9179H28.4068V6.62036H26.2338V12.9179Z" fill="white"/>
<path d="M30.3088 4.27588H32.4818V6.62022H33.8074V8.27721H32.4818V10.2784C32.4818 10.8655 32.6291 11.1483 32.9728 11.1483C33.2551 11.1483 33.5128 10.9514 33.5128 10.9514L34.0529 12.7086C34.0529 12.7086 33.3533 13.1019 32.4567 13.1019C30.7261 13.1019 30.3088 11.8126 30.3088 10.6957V8.27721H29.4005V6.62022H30.3088V4.27588Z" fill="white"/>
<path d="M36.5926 10.0706C36.5926 11.0403 37.4027 11.3717 37.9555 11.3717C38.6551 11.3717 38.962 11.2351 39.4898 10.672L41.0608 11.4576C40.3489 12.6482 39.1952 13.1028 37.796 13.1028C35.893 13.1028 34.3342 11.6049 34.3342 9.77603C34.3342 7.93288 35.893 6.4375 37.796 6.4375C39.7107 6.4375 41.1718 7.56671 41.1718 9.77603C41.1718 9.86195 41.1718 9.99697 41.1595 10.0706H36.5926ZM39.0479 8.86724C38.9497 8.20445 38.4956 7.8485 37.8568 7.8485C37.1081 7.8485 36.6908 8.29037 36.654 8.86724H39.0479Z" fill="white"/>
<path d="M42.165 6.62012H44.338V7.28343H44.3625C44.8535 6.79247 45.48 6.43652 46.1668 6.43652C47.3206 6.43652 48.9285 7.0134 48.9285 8.77012V12.9172H46.756V9.35723C46.756 8.73125 46.3264 8.13187 45.6268 8.13187C44.9762 8.13187 44.338 8.7333 44.338 9.35723V12.9172H42.165V6.62012Z" fill="white"/>
<path d="M55.4332 10.0706C55.4332 11.0403 56.2433 11.3717 56.7961 11.3717C57.4957 11.3717 57.8026 11.2351 58.3304 10.672L59.9014 11.4576C59.1896 12.6482 58.0358 13.1028 56.6366 13.1028C54.7336 13.1028 53.1748 11.6049 53.1748 9.77603C53.1748 7.93288 54.7336 6.4375 56.6366 6.4375C58.5513 6.4375 60.0124 7.56671 60.0124 9.77603C60.0124 9.86195 60.0124 9.99697 60.0002 10.0706H55.4332ZM57.8885 8.86724C57.7903 8.20445 57.3362 7.8485 56.6974 7.8485C55.9487 7.8485 55.5314 8.29037 55.4946 8.86724H57.8885Z" fill="white"/>
<path d="M61.0056 6.62012H63.1786V7.28343H63.2032C63.6941 6.79247 64.3206 6.43652 65.0074 6.43652C66.1612 6.43652 67.7691 7.0134 67.7691 8.77012V12.9172H65.5966V9.35723C65.5966 8.73125 65.167 8.13187 64.4674 8.13187C63.8169 8.13187 63.1786 8.7333 63.1786 9.35723V12.9172H61.0056V6.62012Z" fill="white"/>
<path d="M70.6162 13.5928C70.8488 13.9733 71.3771 14.4029 72.3222 14.4029C72.9237 14.4029 73.8565 14.0469 73.8565 12.93V12.4636C73.3901 12.9791 72.6536 13.1018 71.795 13.1018C69.9528 13.1018 68.6646 11.6167 68.6646 9.77506C68.6646 7.93191 69.9539 6.43652 71.795 6.43652C72.6291 6.43652 73.3042 6.70604 73.8197 7.18524H73.8565V6.62012H76.029V13.0896C76.029 15.2027 74.4707 16.2951 72.3222 16.2951C71.0089 16.2951 69.4987 16.0005 68.838 14.4663L70.6162 13.5928ZM72.445 11.2479C73.2919 11.2479 73.9051 10.6342 73.9051 9.77506C73.9051 8.9036 73.2551 8.2899 72.445 8.2899C71.6231 8.2899 70.9716 8.9036 70.9716 9.77506C70.9716 10.6342 71.5607 11.2479 72.445 11.2479Z" fill="white"/>
<path d="M81.1718 6.62012H83.3443V7.28343H83.3699C83.8608 6.79247 84.4868 6.43652 85.1731 6.43652C86.3269 6.43652 87.9338 7.0134 87.9338 8.77012V12.9172H85.7613V9.35723C85.7613 8.73125 85.3317 8.13187 84.6321 8.13187C83.982 8.13187 83.3428 8.7333 83.3428 9.35723V12.9172H81.1703V6.62012H81.1718Z" fill="white"/>
<path d="M91.0902 10.0706C91.0902 11.0403 91.9003 11.3717 92.4527 11.3717C93.1523 11.3717 93.4601 11.2351 93.9869 10.672L95.5575 11.4576C94.8451 12.6482 93.6923 13.1028 92.2921 13.1028C90.3881 13.1028 88.8298 11.6049 88.8298 9.77603C88.8298 7.93288 90.3881 6.4375 92.2921 6.4375C94.2068 6.4375 95.669 7.56671 95.669 9.77603C95.669 9.86195 95.669 9.99697 95.6567 10.0706H91.0902ZM93.5461 8.86724C93.4474 8.20445 92.9937 7.8485 92.3555 7.8485C91.6063 7.8485 91.1889 8.29037 91.1516 8.86724H93.5461Z" fill="white"/>
<path d="M98.4925 10.0706C98.4925 11.0403 99.3026 11.3717 99.8549 11.3717C100.554 11.3717 100.861 11.2351 101.389 10.672L102.96 11.4576C102.247 12.6482 101.095 13.1028 99.6943 13.1028C97.7908 13.1028 96.2315 11.6049 96.2315 9.77603C96.2315 7.93288 97.7908 6.4375 99.6943 6.4375C101.609 6.4375 103.071 7.56671 103.071 9.77603C103.071 9.86195 103.071 9.99697 103.058 10.0706H98.4925ZM100.945 8.86724C100.848 8.20445 100.393 7.8485 99.7547 7.8485C99.0065 7.8485 98.5897 8.29037 98.5513 8.86724H100.945Z" fill="white"/>
<path d="M104.063 6.62021H106.236V7.52696H106.261C106.261 7.52696 106.949 6.43457 108.188 6.43457C108.999 6.43457 109.563 6.82887 109.563 6.82887L108.656 8.67049C108.656 8.67049 108.251 8.32681 107.527 8.32681C106.397 8.32681 106.238 9.44375 106.238 9.60331V12.9168H104.065L104.063 6.62021Z" fill="white"/>
<path d="M112.581 4.01878C112.581 4.73067 112.004 5.30806 111.292 5.30806C110.578 5.30806 110.002 4.73067 110.002 4.01878C110.002 3.30484 110.58 2.72949 111.292 2.72949C112.004 2.72949 112.581 3.30637 112.581 4.01878ZM110.175 12.9179H112.347V6.62036H110.175V12.9179Z" fill="white"/>
<path d="M79.8984 4.01878C79.8984 4.73067 79.321 5.30806 78.6091 5.30806C77.8962 5.30806 77.3198 4.73067 77.3198 4.01878C77.3198 3.30484 77.8972 2.72949 78.6091 2.72949C79.321 2.72949 79.8984 3.30637 79.8984 4.01878ZM77.4922 12.9179H79.6647V6.62036H77.4922V12.9179Z" fill="white"/>
<path d="M113.882 6.62012H116.054V7.28343H116.08C116.571 6.79247 117.197 6.43652 117.883 6.43652C119.037 6.43652 120.644 7.0134 120.644 8.77012V12.9172H118.471V9.35723C118.471 8.73125 118.041 8.13187 117.342 8.13187C116.692 8.13187 116.053 8.7333 116.053 9.35723V12.9172H113.88V6.62012H113.882Z" fill="white"/>
<path d="M123.492 13.5928C123.725 13.9733 124.253 14.4029 125.199 14.4029C125.801 14.4029 126.733 14.0469 126.733 12.93V12.4636C126.267 12.9791 125.529 13.1018 124.671 13.1018C122.829 13.1018 121.542 11.6167 121.542 9.77506C121.542 7.93191 122.831 6.43652 124.671 6.43652C125.506 6.43652 126.181 6.70604 126.697 7.18524H126.733V6.62012H128.905V13.0896C128.905 15.2027 127.346 16.2951 125.199 16.2951C123.886 16.2951 122.376 16.0005 121.713 14.4663L123.492 13.5928ZM125.321 11.2479C126.168 11.2479 126.781 10.6342 126.781 9.77506C126.781 8.9036 126.131 8.2899 125.321 8.2899C124.499 8.2899 123.848 8.9036 123.848 9.77506C123.85 10.6342 124.438 11.2479 125.321 11.2479Z" fill="white"/>
</g>
<defs>
<clipPath id="clip0">
<rect width="130.905" height="20" fill="white" transform="translate(0 0.512695)"/>
</clipPath>
</defs>
</svg>
