<svg width="65" height="63" viewBox="0 0 65 63" fill="none" xmlns="http://www.w3.org/2000/svg">
<path d="M2.92767 2.84619H61.5944V59.9131H2.92767V2.84619Z" fill="url(#paint0_radial)"/>
<path d="M2.92765 2.84608H61.5945V59.9129H2.92765V2.84608ZM0.261017 62.5796H64.2611V0.179443H0.261017V62.5796ZM42.181 22.4195C42.181 22.2062 42.261 22.0994 42.5011 22.0994H46.6878C46.901 22.0994 47.0077 22.1794 47.0077 22.4195V43.4596C47.0077 43.6728 46.9544 43.7795 46.6878 43.7795H42.5544C42.2878 43.7795 42.2077 43.6462 42.2077 43.4329V22.4195H42.181ZM41.8877 16.3661C41.8877 14.6594 43.0877 13.6461 44.6078 13.6461C46.2345 13.6461 47.3278 14.7394 47.3278 16.3661C47.3278 18.1261 46.1812 19.0861 44.5545 19.0861C43.0077 19.0862 41.8877 18.1261 41.8877 16.3661ZM29.8877 31.1928C29.1412 28.2328 27.3812 21.7795 26.7144 18.6594H26.6611C26.101 21.7795 24.6878 27.0594 23.5678 31.1928H29.8877ZM22.4744 35.5129L20.3677 43.5129C20.3144 43.7261 20.2344 43.7794 19.9678 43.7794H16.0477C15.7811 43.7794 15.7277 43.6994 15.7811 43.3795L23.3544 16.8727C23.4877 16.3928 23.5677 15.966 23.621 14.6594C23.621 14.4728 23.701 14.3928 23.8343 14.3928H29.4343C29.621 14.3928 29.701 14.4461 29.7544 14.6594L38.2344 43.4328C38.2877 43.646 38.2344 43.7794 38.0211 43.7794H33.5943C33.381 43.7794 33.2476 43.7261 33.1944 43.5396L31.0077 35.5129H22.4744Z" fill="#FF7F18"/>
<defs>
<radialGradient id="paint0_radial" cx="0" cy="0" r="1" gradientUnits="userSpaceOnUse" gradientTransform="translate(22.2496 15.6349) scale(44.5867 43.1681)">
<stop stop-color="#423325" stop-opacity="0.98"/>
<stop offset="1" stop-color="#1C0A00"/>
</radialGradient>
</defs>
</svg>
