<svg width="64" height="64" viewBox="0 0 64 64" fill="none" xmlns="http://www.w3.org/2000/svg">
<g clip-path="url(#clip0)">
<path d="M23.4144 56.1952C21.6926 56.1952 20.2924 54.7966 20.2924 53.0733V10.9268C20.2924 9.20507 21.6926 7.80487 23.4144 7.80487H53.0729C54.7962 7.80487 56.1948 9.20507 56.1948 10.9268H59.3168C61.0401 10.9268 62.4387 12.327 62.4387 14.0488V21.8537C62.4387 23.5754 61.0401 24.9756 59.3168 24.9756C61.0401 24.9756 62.4387 26.3758 62.4387 28.0976V35.9025C62.4387 36.7305 62.1098 37.5246 61.5243 38.1101C60.9388 38.6955 60.1448 39.0245 59.3168 39.0245C60.1448 39.0245 60.9388 39.3534 61.5243 39.9389C62.1098 40.5243 62.4387 41.3184 62.4387 42.1464V49.9513C62.4387 50.7793 62.1098 51.5734 61.5243 52.1589C60.9388 52.7444 60.1448 53.0733 59.3168 53.0733H56.1948C56.1948 53.9013 55.8659 54.6954 55.2804 55.2808C54.695 55.8663 53.9009 56.1952 53.0729 56.1952H23.4144Z" fill="white"/>
<path d="M63.9998 14.0488C63.9998 11.4669 61.8987 9.36584 59.3169 9.36584H57.489C57.1652 8.45331 56.5669 7.66335 55.7762 7.10439C54.9855 6.54542 54.0413 6.24484 53.073 6.24388H23.4145C20.8326 6.24388 18.7315 8.34496 18.7315 10.9268V53.0733C18.7315 55.6551 20.8326 57.7562 23.4145 57.7562H53.073C54.0413 57.7552 54.9855 57.4547 55.7762 56.8957C56.5669 56.3367 57.1652 55.5468 57.489 54.6342H59.3169C61.8987 54.6342 63.9998 52.5332 63.9998 49.9513V42.1464C63.9998 40.9476 63.5471 39.8533 62.8041 39.0244C63.5749 38.1674 64.0008 37.0552 63.9998 35.9025V28.0976C63.9998 26.8988 63.5471 25.8045 62.8041 24.9756C63.5749 24.1186 64.0008 23.0064 63.9998 21.8537V14.0488ZM60.8779 49.9513C60.8779 50.3653 60.7134 50.7623 60.4207 51.0551C60.1279 51.3478 59.7309 51.5123 59.3169 51.5123H57.7559V40.5854H59.3169C59.7309 40.5854 60.1279 40.7499 60.4207 41.0426C60.7134 41.3354 60.8779 41.7324 60.8779 42.1464V49.9513ZM60.8779 35.9025C60.8779 36.3165 60.7134 36.7135 60.4207 37.0063C60.1279 37.299 59.7309 37.4635 59.3169 37.4635H57.7559V26.5366H59.3169C59.7309 26.5366 60.1279 26.7011 60.4207 26.9938C60.7134 27.2866 60.8779 27.6836 60.8779 28.0976V35.9025ZM60.8779 21.8537C60.8779 22.2677 60.7134 22.6647 60.4207 22.9575C60.1279 23.2502 59.7309 23.4147 59.3169 23.4147H54.634V53.0733C54.634 53.4873 54.4695 53.8843 54.1768 54.177C53.884 54.4698 53.487 54.6342 53.073 54.6342H23.4145C23.0005 54.6342 22.6034 54.4698 22.3107 54.177C22.0179 53.8843 21.8535 53.4873 21.8535 53.0733V10.9268C21.8535 10.5128 22.0179 10.1158 22.3107 9.82304C22.6034 9.5303 23.0005 9.36584 23.4145 9.36584H53.073C53.487 9.36584 53.884 9.5303 54.1768 9.82304C54.4695 10.1158 54.634 10.5128 54.634 10.9268V12.4878H59.3169C59.7309 12.4878 60.1279 12.6523 60.4207 12.945C60.7134 13.2377 60.8779 13.6348 60.8779 14.0488V21.8537Z" fill="#80397B"/>
<path d="M32.7805 14.0488H48.3902V17.1707H32.7805V14.0488ZM32.7805 23.4146H48.3902V20.2927H32.7805V23.4146ZM32.7805 29.6585H48.3902V26.5366H32.7805V29.6585ZM32.7805 35.9024H48.3902V32.7805H32.7805V35.9024ZM32.7805 42.1463H48.3902V39.0244H32.7805V42.1463ZM32.7805 48.3902H48.3902V45.2683H32.7805V48.3902Z" fill="#80397B"/>
<path d="M32.7805 14.0488H48.3902V17.1707H32.7805V14.0488ZM32.7805 23.4146H48.3902V20.2927H32.7805V23.4146ZM32.7805 29.6585H48.3902V26.5366H32.7805V29.6585ZM32.7805 35.9024H48.3902V32.7805H32.7805V35.9024ZM32.7805 42.1463H48.3902V39.0244H32.7805V42.1463ZM32.7805 48.3902H48.3902V45.2683H32.7805V48.3902Z" fill="#80397B"/>
<path d="M37.4634 1.52588e-05L1.90735e-05 7.80489V56.1951L37.4634 64V1.52588e-05Z" fill="#80397B"/>
<g opacity="0.05">
<path opacity="0.05" d="M37.4634 1.52588e-05L1.52588e-05 7.8049V56.1952L37.4634 64V1.52588e-05Z" fill="url(#paint0_linear)"/>
</g>
<path d="M23.805 18.7317V37.0732C23.6926 36.8359 14.0489 19.122 14.0489 19.122L9.36597 19.5122V44.0867L14.0489 44.3474C14.0489 44.3474 14.0676 25.9185 14.0489 25.6781L23.2711 44.9499L28.8781 45.2684V17.9512L23.805 18.7317Z" fill="white"/>
</g>
<defs>
<linearGradient id="paint0_linear" x1="1.52588e-05" y1="32" x2="37.4634" y2="32" gradientUnits="userSpaceOnUse">
<stop stop-color="white"/>
<stop offset="1"/>
</linearGradient>
<clipPath id="clip0">
<rect width="64" height="64" fill="white"/>
</clipPath>
</defs>
</svg>
