<svg width="64" height="64" viewBox="0 0 64 64" fill="none" xmlns="http://www.w3.org/2000/svg">
<g clip-path="url(#clip0)">
<path fill-rule="evenodd" clip-rule="evenodd" d="M23.4181 0C19.8874 0.00260958 17.0299 2.86793 17.0325 6.3987C17.0299 9.92946 19.89 12.7948 23.4207 12.7974H29.809V6.4013C29.8116 2.87054 26.9515 0.00521916 23.4181 0C23.4207 0 23.4207 0 23.4181 0V0ZM23.4181 17.0667H6.38799C2.85723 17.0693 -0.0028752 19.9346 -0.000265619 23.4654C-0.00548478 26.9961 2.85462 29.8614 6.38538 29.8667H23.4181C26.9489 29.8641 29.809 26.9987 29.8064 23.468C29.809 19.9346 26.9489 17.0693 23.4181 17.0667V17.0667Z" fill="#36C5F0"/>
<path fill-rule="evenodd" clip-rule="evenodd" d="M63.8722 23.4654C63.8748 19.9346 61.0147 17.0693 57.4839 17.0667C53.9532 17.0693 51.093 19.9346 51.0956 23.4654V29.8667H57.4839C61.0147 29.8641 63.8748 26.9987 63.8722 23.4654ZM46.8394 23.4654V6.3987C46.842 2.87054 43.9845 0.00521916 40.4537 0C36.9229 0.00260958 34.0628 2.86793 34.0654 6.3987V23.4654C34.0602 26.9961 36.9203 29.8614 40.4511 29.8667C43.9819 29.8641 46.842 26.9987 46.8394 23.4654Z" fill="#2EB67D"/>
<path fill-rule="evenodd" clip-rule="evenodd" d="M40.4511 64C43.9819 63.9974 46.842 61.1321 46.8394 57.6013C46.842 54.0706 43.9819 51.2052 40.4511 51.2026H34.0628V57.6013C34.0602 61.1295 36.9203 63.9948 40.4511 64ZM40.4511 46.9307H57.4838C61.0146 46.9281 63.8747 44.0628 63.8721 40.532C63.8773 37.0013 61.0172 34.136 57.4864 34.1307H40.4537C36.9229 34.1333 34.0628 36.9987 34.0654 40.5294C34.0628 44.0628 36.9203 46.9281 40.4511 46.9307V46.9307Z" fill="#ECB22E"/>
<path fill-rule="evenodd" clip-rule="evenodd" d="M-5.84506e-06 40.532C-0.00261543 44.0627 2.85749 46.9281 6.38826 46.9307C9.91904 46.9281 12.7791 44.0627 12.7765 40.532V34.1332H6.38826C2.85749 34.1358 -0.00261543 37.0012 -5.84506e-06 40.532ZM17.0328 40.532V57.5987C17.0276 61.1295 19.8877 63.9948 23.4184 64C26.9492 63.9974 29.8093 61.1321 29.8067 57.6013V40.5372C29.8119 37.0064 26.9518 34.1411 23.421 34.1358C19.8877 34.1358 17.0302 37.0012 17.0328 40.532C17.0328 40.5346 17.0328 40.532 17.0328 40.532Z" fill="#E01E5A"/>
</g>
<defs>
<clipPath id="clip0">
<rect width="63.8721" height="64" fill="white"/>
</clipPath>
</defs>
</svg>
