<svg width="64" height="64" viewBox="0 0 64 64" fill="none" xmlns="http://www.w3.org/2000/svg">
<path d="M16.2 49.9001L0.699997 37.7001L8.4 23.4L30.5 32L16.2 49.9001Z" fill="url(#paint0_linear)"/>
<path d="M64 17.1L62.8 54.1L38.2 64L23.4 54.4L45 32L35.6 11.2L44.1 1L64 17.1Z" fill="url(#paint1_linear)"/>
<path d="M64 17.1L44.5 40.1L35.6 11.2L44.1 1L64 17.1Z" fill="url(#paint2_linear)"/>
<path d="M30.8 53.1L5.2 62.4L9.3 48L14.6 30.2L0 25.3L9.3 0L29.3 2.4L49.1 25L30.8 53.1Z" fill="url(#paint3_linear)"/>
<path d="M12 12H52V52H12V12Z" fill="black"/>
<path d="M15.8 44.5H30.8V47H15.8V44.5ZM26.5 20.2V17.2H18.3V20.2H20.6V30.7H18.3V33.8H26.5V30.7H24.2V20.2H26.5V20.2ZM34.5001 34C33.3584 34.0515 32.2225 33.8105 31.2 33.3C30.3635 32.8385 29.618 32.2286 29 31.5L31.3 28.9C31.7154 29.3563 32.1856 29.7594 32.7 30.1C33.1841 30.3838 33.7394 30.5226 34.3 30.5C34.6037 30.5232 34.9083 30.4715 35.1873 30.3495C35.4663 30.2274 35.711 30.0387 35.9001 29.8C36.3632 29.2035 36.5782 28.4512 36.5001 27.7V17H40.2001V27.8C40.238 28.6845 40.1021 29.5678 39.8001 30.4C39.5362 31.2443 39.0531 32.0034 38.4001 32.6C37.2667 33.4414 35.9097 33.9285 34.5001 34Z" fill="white"/>
<defs>
<linearGradient id="paint0_linear" x1="0.699997" y1="36.6501" x2="30.4401" y2="36.6501" gradientUnits="userSpaceOnUse">
<stop offset="0.26" stop-color="#F97A12"/>
<stop offset="0.46" stop-color="#B07B58"/>
<stop offset="0.72" stop-color="#577BAE"/>
<stop offset="0.91" stop-color="#1E7CE5"/>
<stop offset="1" stop-color="#087CFA"/>
</linearGradient>
<linearGradient id="paint1_linear" x1="23.5401" y1="22.7602" x2="76.0628" y2="34.8272" gradientUnits="userSpaceOnUse">
<stop stop-color="#F97A12"/>
<stop offset="0.07" stop-color="#CB7A3E"/>
<stop offset="0.15" stop-color="#9E7B6A"/>
<stop offset="0.24" stop-color="#757B91"/>
<stop offset="0.33" stop-color="#537BB1"/>
<stop offset="0.43" stop-color="#387CCC"/>
<stop offset="0.54" stop-color="#237CE0"/>
<stop offset="0.66" stop-color="#147CEF"/>
<stop offset="0.79" stop-color="#0B7CF7"/>
<stop offset="1" stop-color="#087CFA"/>
</linearGradient>
<linearGradient id="paint2_linear" x1="57.8" y1="39.2199" x2="35.4314" y2="3.93755" gradientUnits="userSpaceOnUse">
<stop stop-color="#FE315D"/>
<stop offset="0.08" stop-color="#CB417E"/>
<stop offset="0.16" stop-color="#9E4E9B"/>
<stop offset="0.25" stop-color="#755BB4"/>
<stop offset="0.34" stop-color="#5365CA"/>
<stop offset="0.44" stop-color="#386DDB"/>
<stop offset="0.54" stop-color="#2374E9"/>
<stop offset="0.66" stop-color="#1478F3"/>
<stop offset="0.79" stop-color="#0B7BF8"/>
<stop offset="1" stop-color="#087CFA"/>
</linearGradient>
<linearGradient id="paint3_linear" x1="9.82" y1="15.0303" x2="63.6797" y2="70.1956" gradientUnits="userSpaceOnUse">
<stop stop-color="#FE315D"/>
<stop offset="0.04" stop-color="#F63462"/>
<stop offset="0.1" stop-color="#DF3A71"/>
<stop offset="0.17" stop-color="#C24383"/>
<stop offset="0.29" stop-color="#AD4A91"/>
<stop offset="0.55" stop-color="#755BB4"/>
<stop offset="0.92" stop-color="#1D76ED"/>
<stop offset="1" stop-color="#087CFA"/>
</linearGradient>
</defs>
</svg>
